Download TCGA Data.
…
clin_patient <- tcga_xml2df(xfiles = xfiles, element = "patient", verbose = FALSE)
#> Warning in tcga_xml_parse(xfile = xfiles[x]): NAs introduced by coercion
#> Warning in tcga_xml_parse(xfile = xfiles[x]): NAs introduced by coercion
#> Warning in tcga_xml_parse(xfile = xfiles[x]): NAs introduced by coercion
#> Warning in tcga_xml_parse(xfile = xfiles[x]): NAs introduced by coercion
#> Warning in tcga_xml_parse(xfile = xfiles[x]): NAs introduced by coercion
#> Warning in tcga_xml_parse(xfile = xfiles[x]): NAs introduced by coercion
#> Warning in tcga_xml_parse(xfile = xfiles[x]): NAs introduced by coercion
#> Warning in tcga_xml_parse(xfile = xfiles[x]): NAs introduced by coercion
#> Warning in tcga_xml_parse(xfile = xfiles[x]): NAs introduced by coercion
#> Warning in tcga_xml_parse(xfile = xfiles[x]): NAs introduced by coercion
#> Warning in tcga_xml_parse(xfile = xfiles[x]): NAs introduced by coercion
#> Warning in tcga_xml_parse(xfile = xfiles[x]): NAs introduced by coercion
print(clin_patient)
#> # A tibble: 515 × 70
#>    bcr_patient_barcode additional_studies tumor_tissue_site    histological_type
#>    <chr>               <chr>              <chr>                <chr>            
#>  1 TCGA-DU-A7TI        <NA>               Central nervous sys… Astrocytoma      
#>  2 TCGA-S9-A7J2        <NA>               Central nervous sys… Oligodendroglioma
#>  3 TCGA-P5-A730        <NA>               Central nervous sys… Oligoastrocytoma 
#>  4 TCGA-HT-7474        <NA>               Central nervous sys… Oligoastrocytoma 
#>  5 TCGA-TM-A84C        <NA>               Central nervous sys… Astrocytoma      
#>  6 TCGA-TQ-A7RG        <NA>               Central nervous sys… Oligoastrocytoma 
#>  7 TCGA-HT-A74O        <NA>               Central nervous sys… Astrocytoma      
#>  8 TCGA-S9-A7J3        <NA>               Central nervous sys… Oligodendroglioma
#>  9 TCGA-CS-6666        <NA>               Central nervous sys… Astrocytoma      
#> 10 TCGA-FG-7637        <NA>               Central nervous sys… Oligoastrocytoma 
#> # ℹ 505 more rows
#> # ℹ 66 more variables: other_dx <chr>, gender <chr>, vital_status <chr>,
#> #   days_to_birth <dbl>, days_to_last_known_alive <chr>, days_to_death <dbl>,
#> #   days_to_last_followup <dbl>, race_list <chr>, tissue_source_site <chr>,
#> #   patient_id <chr>, bcr_patient_uuid <chr>,
#> #   history_of_neoadjuvant_treatment <chr>, informed_consent_verified <chr>,
#> #   icd_o_3_site <chr>, icd_o_3_histology <chr>, icd_10 <chr>, …
…
