Easy Access and Analysis Tools for TCGA Data
…
#> $patient
#> # A tibble: 1 × 39
#>   bcr_patient_barcode additional_studies tumor_tissue_site histological_type    
#>   <chr>               <chr>              <chr>             <chr>                
#> 1 TCGA-12-3644        <NA>               Brain             Untreated primary (d…
#> # ℹ 35 more variables: prior_glioma <chr>, gender <chr>, vital_status <chr>,
#> #   days_to_birth <dbl>, days_to_death <dbl>, days_to_last_followup <dbl>,
#> #   race_list <chr>, tissue_source_site <chr>, patient_id <chr>,
#> #   bcr_patient_uuid <chr>, informed_consent_verified <chr>,
#> #   icd_o_3_site <chr>, icd_o_3_histology <chr>, icd_10 <chr>,
#> #   tissue_prospective_collection_indicator <chr>,
#> #   tissue_retrospective_collection_indicator <chr>, …
#> 
#> $drugs
#> # A tibble: 28 × 23
#>    bcr_patient_barcode tx_on_clinical_trial regimen_number bcr_drug_barcode   
#>    <chr>               <chr>                <chr>          <chr>              
#>  1 TCGA-12-3644        <NA>                 <NA>           TCGA-12-3644-D23782
#>  2 TCGA-12-3644        <NA>                 <NA>           TCGA-12-3644-D23800
#>  3 TCGA-12-3644        <NA>                 <NA>           TCGA-12-3644-D23805
#>  4 TCGA-12-3644        <NA>                 <NA>           TCGA-12-3644-D23787
#>  5 TCGA-12-3644        <NA>                 <NA>           TCGA-12-3644-D23804
#>  6 TCGA-12-3644        <NA>                 <NA>           TCGA-12-3644-D23789
#>  7 TCGA-12-3644        <NA>                 <NA>           TCGA-12-3644-D23798
#>  8 TCGA-12-3644        <NA>                 <NA>           TCGA-12-3644-D23795
#>  9 TCGA-12-3644        <NA>                 <NA>           TCGA-12-3644-D23783
#> 10 TCGA-12-3644        <NA>                 <NA>           TCGA-12-3644-D23788
#> # ℹ 18 more rows
#> # ℹ 19 more variables: bcr_drug_uuid <chr>, total_dose <dbl>,
#> #   total_dose_units <chr>, prescribed_dose <dbl>, prescribed_dose_units <chr>,
#> #   number_cycles <dbl>, days_to_drug_therapy_start <dbl>,
#> #   days_to_drug_therapy_end <dbl>, therapy_types <chr>, drug_name <chr>,
#> #   clinical_trail_drug_classification <chr>, regimen_indication <chr>,
#> #   regimen_indication_notes <chr>, route_of_administrations <chr>, …
…
